<?xml version="1.0"?>
<svg xmlns="http://www.w3.org/2000/svg" xmlns:xlink="http://www.w3.org/1999/xlink" version="1.1" id="Capa_1" x="0px" y="0px" viewBox="0 0 512 512" style="enable-background:new 0 0 512 512;" xml:space="preserve" width="512px" height="512px" class=""><g><path style="fill:#0072FF" d="M318.136,458.514H49.709v-84.505c0.06-41.159,33.404-74.503,74.563-74.563h97.727h4.971  c81.642,0.338,148.112-65.566,148.45-147.217c0.338-81.652-65.566-148.102-147.217-148.45S80.101,69.354,79.753,150.996  c-0.149,36.377,13.113,71.531,37.262,98.741C51.25,253.635-0.06,308.135,0,374.009v109.359c0,13.73,11.125,24.854,24.854,24.854  h293.282c13.73,0,24.854-11.125,24.854-24.854S331.866,458.514,318.136,458.514z M226.97,54.879  c53.845,1.541,96.246,46.428,94.705,100.272c-1.442,50.604-41.378,91.693-91.921,94.586h-7.755  c-53.755-3.38-94.596-49.699-91.216-103.454C133.985,95.332,175.929,55.476,226.97,54.879z" data-original="#FF485A" class="active-path" data-old_color="#0007FF"/><g>
	<path style="fill:#0072FF" d="M487.146,398.864H338.019c-13.73,0-24.854-11.125-24.854-24.854s11.125-24.854,24.854-24.854   h149.126c13.73,0,24.854,11.125,24.854,24.854S500.875,398.864,487.146,398.864z" data-original="#FFBBC0" class="" data-old_color="#007AFF"/>
	<path style="fill:#0072FF" d="M412.583,473.427c-13.73,0-24.854-11.125-24.854-24.854V299.446   c0-13.73,11.125-24.854,24.854-24.854s24.854,11.125,24.854,24.854v149.126C437.437,462.302,426.312,473.427,412.583,473.427z" data-original="#FFBBC0" class="" data-old_color="#007AFF"/>
</g></g> </svg>
